<svg width="18" height="18" viewBox="0 0 18 18" fill="none" xmlns="http://www.w3.org/2000/svg">
<path fill-rule="evenodd" clip-rule="evenodd" d="M17.4551 2C17.4551 0.89543 16.5596 0 15.4551 0H10.7585C9.65391 0 8.75848 0.895431 8.75848 2V7.81805C8.41426 8.23857 8.07521 8.6444 7.77491 9H2.54503C1.44046 9 0.545027 9.89543 0.545027 11V16C0.545027 17.1046 1.44046 18 2.54503 18H7.24162C8.34619 18 9.24163 17.1046 9.24163 16V10.1926L10.2434 9H15.4551C16.5596 9 17.4551 8.10457 17.4551 7V2Z" fill="#EA7722"/>
</svg>
