<svg width="60" height="60" viewBox="0 0 60 60" fill="none" xmlns="http://www.w3.org/2000/svg">
<path fill-rule="evenodd" clip-rule="evenodd" d="M30 59C46.0163 59 59 46.0163 59 30C59 13.9837 46.0163 1 30 1C13.9837 1 1 13.9837 1 30C1 46.0163 13.9837 59 30 59Z" stroke="#DFE2E5"/>
<path opacity="0.3" fill-rule="evenodd" clip-rule="evenodd" d="M21.961 29.45C22.5018 29.45 22.9931 29.2342 23.3547 28.8843L25.3265 29.8735C25.3164 29.955 25.3106 30.0378 25.3106 30.1222C25.3106 31.2341 26.2122 32.1388 27.3204 32.1388C28.4286 32.1388 29.3302 31.2341 29.3302 30.1222C29.3302 29.8113 29.2595 29.5165 29.1338 29.2533L31.8138 26.5641C32.0762 26.6904 32.37 26.7612 32.6799 26.7612C33.788 26.7612 34.6897 25.8566 34.6897 24.7447C34.6897 24.5346 34.6574 24.3321 34.5977 24.1416L36.9261 22.3895C37.245 22.6033 37.6278 22.7281 38.0393 22.7281C39.1475 22.7281 40.0491 21.8234 40.0491 20.7115C40.0491 19.5996 39.1475 18.6949 38.0393 18.6949C36.9311 18.6949 36.0295 19.5996 36.0295 20.7115C36.0295 20.9216 36.0618 21.1241 36.1215 21.3145L33.7931 23.0666C33.4742 22.8529 33.0914 22.7281 32.6799 22.7281C31.5717 22.7281 30.6701 23.6327 30.6701 24.7447C30.6701 25.0556 30.7407 25.3503 30.8665 25.6136L28.1864 28.3027C27.924 28.1765 27.6303 28.1056 27.3204 28.1056C26.7796 28.1056 26.2883 28.3215 25.9266 28.6714L23.9549 27.6822C23.965 27.6006 23.9708 27.5178 23.9708 27.4334C23.9708 26.3215 23.0691 25.4169 21.961 25.4169C20.8528 25.4169 19.9512 26.3215 19.9512 27.4334C19.9512 28.5454 20.8528 29.45 21.961 29.45ZM38.0393 20.0393C38.4087 20.0393 38.7093 20.3409 38.7093 20.7115C38.7093 21.0821 38.4087 21.3837 38.0393 21.3837C37.67 21.3837 37.3694 21.0821 37.3694 20.7115C37.3694 20.3409 37.67 20.0393 38.0393 20.0393ZM33.3498 24.7447C33.3498 24.3741 33.0492 24.0725 32.6799 24.0725C32.3105 24.0725 32.0099 24.3741 32.0099 24.7447C32.0099 25.1153 32.3105 25.4169 32.6799 25.4169C33.0492 25.4169 33.3498 25.1153 33.3498 24.7447ZM27.3204 29.45C27.6898 29.45 27.9904 29.7516 27.9904 30.1222C27.9904 30.4928 27.6898 30.7944 27.3204 30.7944C26.9511 30.7944 26.6505 30.4928 26.6505 30.1222C26.6505 29.7516 26.9511 29.45 27.3204 29.45ZM22.6309 27.4334C22.6309 27.0629 22.3303 26.7612 21.961 26.7612C21.5916 26.7612 21.291 27.0629 21.291 27.4334C21.291 27.804 21.5916 28.1056 21.961 28.1056C22.3303 28.1056 22.6309 27.804 22.6309 27.4334Z" fill="#DE5458"/>
<path fill-rule="evenodd" clip-rule="evenodd" d="M40.6426 39.9884H39.936V26.0752C39.936 25.7116 39.6395 25.4169 39.2736 25.4169H36.624C36.2581 25.4169 35.9616 25.7116 35.9616 26.0752V39.9884H34.6368V30.0253C34.6368 29.6617 34.3402 29.367 33.9744 29.367H31.3247C30.9588 29.367 30.6623 29.6617 30.6623 30.0253V39.9884H29.3375V35.2921C29.3375 34.9285 29.041 34.6338 28.6751 34.6338H26.0255C25.6596 34.6338 25.3631 34.9285 25.3631 35.2921V39.9884H24.0382V32.6587C24.0382 32.2951 23.7417 32.0004 23.3758 32.0004H20.7262C20.3603 32.0004 20.0638 32.2951 20.0638 32.6587V39.9884H19.3572C18.9914 39.9884 18.6948 40.2831 18.6948 40.6467C18.6948 41.0104 18.9914 41.3051 19.3572 41.3051H40.6426C41.0085 41.3051 41.305 41.0104 41.305 40.6467C41.305 40.2831 41.0085 39.9884 40.6426 39.9884ZM37.2864 26.7336H38.6112V39.9884H37.2864V26.7336ZM33.3119 30.6837H31.9871V39.9884H33.3119V30.6837ZM26.6879 35.9505H28.0127V39.9884H26.6879V35.9505ZM22.7134 33.3171H21.3886V39.9884H22.7134V33.3171Z" fill="#DE5458"/>
</svg>
