<svg width="35" height="31" viewBox="0 0 35 31" fill="none" xmlns="http://www.w3.org/2000/svg">
<path d="M23.451 22.5455H34.9999L23.451 0H11.8999L23.451 22.5455Z" fill="#FFC107"/>
<path d="M10.6386 22.5455L5.6001 31H29.4875L35.0001 22.5455H10.6386Z" fill="#2196F3"/>
<path d="M11.8017 0L0 20.6659L5.90193 31L17.5 10.6906L11.8017 0Z" fill="#4CAF50"/>
</svg>
